1AHKUI;A2.20;KAS
1AHMNA;A3.12;SL
1AHMNG;B5.09;MEA
2AHKUI;A2.06;TOM
2AHMNA;A3.13;FER
2AHMNG;B5.08;HAG
3AHKUI;A1.23;SSA
3AHMNA;A3.05;SM
3AHMNG;WAKL;KSR
4AHKUI;A2.13;KDC
4AHMNA;A3.19;JAD
4AHMNG;WAKL;LUP
5AHKUI;A2.14;SBA
5AHMNA;A3.14;MD
5AHMNG;C4.06;KOP
1AKKUX;A2.05;STK
3AKKUX;A2.04;STK
2AKKUX;A2.05;STK
4AKKUX;A2.04;STK
1AO;C5.06;KY
1AHWIT;A1.17;GRB
1BHWIT;A1.06;GRM
1CHWIT;A1.14;ZIM
2AHWIT;A1.15;BI
2BHWIT;C3.09;SED
3AHWIT;C2.10;FM
3BHWIT;C2.11;BZ
4AHWIT;WAKL;SO
4BHWIT;WAKL;STM
5AHWIT;C3.06;MAH
5BHWIT;AH.26;NI
1AAIF;C2.07;PT
1BAIF;C2.08;AT
1AKIF;C2.10;GT
3AAIF;C2.14;AT
3AKIF;B5.12;HIK
2AAIF;;
2BAIF;;AT
2AKIF;;GT
4AAIF;;GC
4AKIF;;GC
2EVIF;;GRU
1AFITN;A1.05;TK
2AFITN;C3.10;BOB
3AFID;B5.12;NWV
4AFID;WAKL;NAI
1AHIF;C3.11;GC
1BHIF;B5.11;BES
1CHIF;C5.10;MAY
1DHIF;C5.09;LEV
1EHIF;C4.14;LAD
2AHIF;C3.08;TSI
2BHIF;C4.09;ROG
2CHIF;WAKL;TT
2DHIF;C4.08;SIL
2EHIF;C2.14;PK
3AHIF;C4.10;SO
3BHIF;C3.07;ROG
3CHIF;A1.16;BOM
3EHIF;C2.08;KRB
4AHIF;WAKL;KY
4BHIF;WAKL;PC
4CHIF;WAKL;LC
4EHIF;WAKL;ZUM
5AHIF;B5.07;NAI
5BHIF;C2.09;PC
5EHIF;B5.06;HAE
1AVIF;A1.05;GRU
1BVIF;B5.10;FIN
1CVIF;B5.11;KOL
1DVIF;;EN
1ABIF;C4.09;GT
1BBIF;C4.08;SB
1CBIF;C4.10;SB
3ABIF;C3.06;GT
3BBIF;C4.14;SW
3CBIF;C3.11;SW
5ABIF;C4.06;LIC
5BBIF;C4.11;LIC
2ABIF;;GT
2AVIF;;FIN
2BVIF;;SB
2CVIF;;KOL
2DVIF;;EN
2BBIF;;SW
4ABIF;;GT
4BBIF;;AT
4CBIF;;
6ABIF;;LIC
6BBIF;;LIC
1AHBGM;C3.14;SF
1BHBGM;B5.10;RR
2AHBGM;B5.13;JEL
2BHBGM;C2.06;ZEP
3AHBGM;WAKL;PIR
3BHBGM;WAKL;CAM
4AHBGM;C4.07;HEB
5AHBGM;C2.07;PRS
1ABKUF;A3.13;BIN
3ABKUF;A3.12;BIN
5ABKUF;A3.05;BIN
2ABKUF;A3.13;BIN
4ABKUF;A3.12;BIN
6ABKUF;A3.05;BIN
SPR;;
SB;;
FS1_9;;
FS1_10;;
FS2_9;;
FS2_10;;
FS2_11;;
FS3_12;;
FS3_13;;
FSKPH;;
FSPH;;
FSVWU;;
EXTERN_1;;
EXTERN_2;;
Lernwerkstatt_AM;;
FS2_2;;
Lernwerkstatt_BWM;;
MEP_DOB_HAM;;